<svg width="16" height="16" version="1.1" viewBox="0 0 16 16" xmlns="http://www.w3.org/2000/svg">
 <defs>
  <style id="current-color-scheme" type="text/css">.ColorScheme-Text { color:#727272; } .ColorScheme-Highlight { color:#bdbdbd; }</style>
 </defs>
 <rect id="bottom_layer" class="ColorScheme-Highlight" x="1" y="1" width="14" height="5" rx="1" ry="1" fill="currentColor" opacity="0.5"/>
 <path class="ColorScheme-Highlight" d="m8 3-1 2h-6c-0.554 0-1 0.446-1 1v8c0 0.554 0.446 1 1 1h14c0.554 0 1-0.446 1-1v-10c0-0.5-0.5-1-1-1z" fill="currentColor"/>
</svg>
